@startuml

/' diagram meta data start
config=CallConfiguration;
{
  "rootMethod": "Main#main(String[])",
  "projectClassification": {
    "searchMode": "OpenProject", // OpenProject, AllProjects
    "includedProjects": "",
    "pathEndKeywords": "*.impl",
    "isClientPath": "",
    "isClientName": "",
    "isTestPath": "",
    "isTestName": "",
    "isMappingPath": "",
    "isMappingName": "",
    "isDataAccessPath": "",
    "isDataAccessName": "",
    "isDataStructurePath": "",
    "isDataStructureName": "",
    "isInterfaceStructuresPath": "",
    "isInterfaceStructuresName": "",
    "isEntryPointPath": "",
    "isEntryPointName": "",
    "treatFinalFieldsAsMandatory": false
  },
  "graphRestriction": {
    "classPackageExcludeFilter": "",
    "classPackageIncludeFilter": "",
    "classNameExcludeFilter": "",
    "classNameIncludeFilter": "",
    "methodNameExcludeFilter": "",
    "methodNameIncludeFilter": "",
    "removeByInheritance": "", // inheritance/annotation based filtering is done in a second step
    "removeByAnnotation": "",
    "removeByClassPackage": "", // cleanup the graph after inheritance/annotation based filtering is done
    "removeByClassName": "",
    "cutMappings": false,
    "cutEnum": true,
    "cutTests": true,
    "cutClient": true,
    "cutDataAccess": true,
    "cutInterfaceStructures": true,
    "cutDataStructures": true,
    "cutGetterAndSetter": true,
    "cutConstructors": true
  },
  "graphTraversal": {
    "forwardDepth": 3,
    "backwardDepth": 3,
    "classPackageExcludeFilter": "",
    "classPackageIncludeFilter": "",
    "classNameExcludeFilter": "",
    "classNameIncludeFilter": "",
    "methodNameExcludeFilter": "",
    "methodNameIncludeFilter": "",
    "hideMappings": false,
    "hideDataStructures": false,
    "hidePrivateMethods": true,
    "hideInterfaceCalls": true, // indirection: implementation -> interface (is hidden) -> implementation
    "onlyShowApplicationEntryPoints": false, // root node is included
    "useMethodCallsForStructureDiagram": "ForwardOnly" // ForwardOnly, BothDirections, No
  },
  "details": {
    "aggregation": "GroupByClass", // ByClass, GroupByClass, None
    "showMethodParametersTypes": false,
    "showMethodParametersNames": false,
    "showMethodReturnType": false,
    "showPackageLevels": 3,
    "showCallOrder": false,
    "edgeMode": "MethodsOnly", // TypesOnly, MethodsOnly, TypesAndMethods, MethodsAndDirectTypeUsage
    "showDetailedClassStructure": false
  },
  "rootClass": "Main",
  "extensionCallbackMethod": "" // qualified.class.name#methodName - signature: public static String method(String)
}
diagram meta data end '/



digraph g {
    rankdir="LR"
    splines=polyline
    

'nodes 
subgraph cluster_1069967344 { 
   	label=SetTeamNameCmd
	labeljust=l
	fillcolor="#ececec"
	style=filled
   
   subgraph cluster_162675118 { 
   	label=SetTeamNameCmd
	labeljust=l
	fillcolor=white
	style=filled
   
   SetTeamNameCmd1069967344XXXexecute0[
	label="+ execute()"
	style=filled
	fillcolor=white
	tooltip="SetTeamNameCmd

null"
	fontcolor=darkgreen
];
} 
} 

subgraph cluster_1106620442 { 
   	label=ListAllTeamCmd
	labeljust=l
	fillcolor="#ececec"
	style=filled
   
   subgraph cluster_1910005650 { 
   	label=ListAllTeamCmd
	labeljust=l
	fillcolor=white
	style=filled
   
   ListAllTeamCmd1106620442XXXexecute0[
	label="+ execute()"
	style=filled
	fillcolor=white
	tooltip="ListAllTeamCmd

null"
	fontcolor=darkgreen
];
} 
} 

subgraph cluster_1373334934 { 
   	label=UndoCmd
	labeljust=l
	fillcolor="#ececec"
	style=filled
   
   subgraph cluster_1183380798 { 
   	label=UndoCmd
	labeljust=l
	fillcolor=white
	style=filled
   
   UndoCmd1373334934XXXexecute0[
	label="+ execute()"
	style=filled
	fillcolor=white
	tooltip="UndoCmd

null"
	fontcolor=darkgreen
];
} 
} 

subgraph cluster_1382791050 { 
   	label=FootballTeam
	labeljust=l
	fillcolor="#ececec"
	style=filled
   
   subgraph cluster_1373947026 { 
   	label=FootballTeam
	labeljust=l
	fillcolor=white
	style=filled
   
   FootballTeam1382791050XXXdisplayTeam0[
	label="+ displayTeam()"
	style=filled
	fillcolor=white
	tooltip="FootballTeam

&#10;  Displays information about the team.&#10;  This method should be implemented by subclasses.&#10; "
	fontcolor=darkgreen
];
} 
} 

subgraph cluster_1546838468 { 
   	label=RedoCmd
	labeljust=l
	fillcolor="#ececec"
	style=filled
   
   subgraph cluster_1709420406 { 
   	label=RedoCmd
	labeljust=l
	fillcolor=white
	style=filled
   
   RedoCmd1546838468XXXexecute0[
	label="+ execute()"
	style=filled
	fillcolor=white
	tooltip="RedoCmd

null"
	fontcolor=darkgreen
];
} 
} 

subgraph cluster_1575319689 { 
   	label=VolleyballTeam
	labeljust=l
	fillcolor="#ececec"
	style=filled
   
   subgraph cluster_366859406 { 
   	label=VolleyballTeam
	labeljust=l
	fillcolor=white
	style=filled
   
   VolleyballTeam1575319689XXXdisplayTeam0[
	label="+ displayTeam()"
	style=filled
	fillcolor=white
	tooltip="VolleyballTeam

&#10;  Displays the team information, including players categorized by their positions (attacker/defender).&#10; "
	fontcolor=darkgreen
];
} 
} 

subgraph cluster_1583833486 { 
   	label=SetPlayerPositionCmd
	labeljust=l
	fillcolor="#ececec"
	style=filled
   
   subgraph cluster_1673544174 { 
   	label=SetPlayerPositionCmd
	labeljust=l
	fillcolor=white
	style=filled
   
   SetPlayerPositionCmd1583833486XXXexecute0[
	label="+ execute()"
	style=filled
	fillcolor=white
	tooltip="SetPlayerPositionCmd

&#10;  Executes the command, which updates the position of a player.&#10; "
	fontcolor=darkgreen
];
} 
} 

subgraph cluster_1606164705 { 
   	label=CreateTeamCmd
	labeljust=l
	fillcolor="#ececec"
	style=filled
   
   subgraph cluster_2089623916 { 
   	label=CreateTeamCmd
	labeljust=l
	fillcolor=white
	style=filled
   
   CreateTeamCmd1606164705XXXexecute0[
	label="+ execute()"
	style=filled
	fillcolor=white
	tooltip="CreateTeamCmd

null"
	fontcolor=darkgreen
];
} 
} 

subgraph cluster_1806386234 { 
   	label=Caretaker
	labeljust=l
	fillcolor="#ececec"
	style=filled
   
   subgraph cluster_569091194 { 
   	label=Caretaker
	labeljust=l
	fillcolor=white
	style=filled
   
   Caretaker1806386234XXXpushCommand1681334247[
	label="+ pushCommand()"
	style=filled
	fillcolor=white
	tooltip="Caretaker

null"
	fontcolor=darkgreen
];

Caretaker1806386234XXXredo0[
	label="+ redo()"
	style=filled
	fillcolor=white
	tooltip="Caretaker

null"
	fontcolor=darkgreen
];

Caretaker1806386234XXXshowRedoList0[
	label="+ showRedoList()"
	style=filled
	fillcolor=white
	tooltip="Caretaker

null"
	fontcolor=darkgreen
];

Caretaker1806386234XXXshowUndoList0[
	label="+ showUndoList()"
	style=filled
	fillcolor=white
	tooltip="Caretaker

null"
	fontcolor=darkgreen
];

Caretaker1806386234XXXundo0[
	label="+ undo()"
	style=filled
	fillcolor=white
	tooltip="Caretaker

null"
	fontcolor=darkgreen
];
} 
} 

subgraph cluster_1845651688 { 
   	label=AddPlayerCmd
	labeljust=l
	fillcolor="#ececec"
	style=filled
   
   subgraph cluster_1117556178 { 
   	label=AddPlayerCmd
	labeljust=l
	fillcolor=white
	style=filled
   
   AddPlayerCmd1845651688XXXexecute0[
	label="+ execute()"
	style=filled
	fillcolor=white
	tooltip="AddPlayerCmd

null"
	fontcolor=darkgreen
];
} 
} 

subgraph cluster_1934913847 { 
   	label=PlayerFactory
	labeljust=l
	fillcolor="#ececec"
	style=filled
   
   subgraph cluster_366525340 { 
   	label=PlayerFactory
	labeljust=l
	fillcolor=white
	style=filled
   
   PlayerFactory1934913847XXXcreatePlayer1468174875[
	label="+ createPlayer()"
	style=filled
	fillcolor=white
	tooltip="PlayerFactory

&#10;  Creates a new Player object with the specified ID, name, and position.&#10; &#10;  @param id the ID of the player&#10;  @param name the name of the player&#10;  @param position the position of the player&#10;  @return a new Player object&#10; "
	fontcolor=darkgreen
];
} 
} 

subgraph cluster_1935209918 { 
   	label=ListCurrentTeamCmd
	labeljust=l
	fillcolor="#ececec"
	style=filled
   
   subgraph cluster_1465292142 { 
   	label=ListCurrentTeamCmd
	labeljust=l
	fillcolor=white
	style=filled
   
   ListCurrentTeamCmd1935209918XXXexecute0[
	label="+ execute()"
	style=filled
	fillcolor=white
	tooltip="ListCurrentTeamCmd

null"
	fontcolor=darkgreen
];
} 
} 

subgraph cluster_2086864626 { 
   	label=DeletePlayerCmd
	labeljust=l
	fillcolor="#ececec"
	style=filled
   
   subgraph cluster_2041050158 { 
   	label=DeletePlayerCmd
	labeljust=l
	fillcolor=white
	style=filled
   
   DeletePlayerCmd2086864626XXXexecute0[
	label="+ execute()"
	style=filled
	fillcolor=white
	tooltip="DeletePlayerCmd

null"
	fontcolor=darkgreen
];
} 
} 

subgraph cluster_216072902 { 
   	label=ListUndoRedoCmd
	labeljust=l
	fillcolor="#ececec"
	style=filled
   
   subgraph cluster_1722407802 { 
   	label=ListUndoRedoCmd
	labeljust=l
	fillcolor=white
	style=filled
   
   ListUndoRedoCmd216072902XXXexecute0[
	label="+ execute()"
	style=filled
	fillcolor=white
	tooltip="ListUndoRedoCmd

null"
	fontcolor=darkgreen
];
} 
} 

subgraph cluster_2390489 { 
   	label=Main
	labeljust=l
	fillcolor="#ececec"
	style=filled
   
   subgraph cluster_1706522830 { 
   	label=Main
	labeljust=l
	fillcolor=white
	style=filled
   
   Main2390489XXXmain1859653459[
	label="+ main()"
	style=filled
	fillcolor=white
	tooltip="Main

null"
	penwidth=4
	fontcolor=darkgreen
];
} 
} 

subgraph cluster_2602621 { 
   	label=Team
	labeljust=l
	fillcolor="#ececec"
	style=filled
   
   subgraph cluster_1782038350 { 
   	label=Team
	labeljust=l
	fillcolor=white
	style=filled
   
   Team2602621XXXaddPlayer1901885695[
	label="+ addPlayer()"
	style=filled
	fillcolor=white
	tooltip="Team

&#10;  Adds a player to the team.&#10; &#10;  @param player the player to add&#10; "
	fontcolor=darkgreen
];

Team2602621XXXdisplayTeam0[
	label="+ displayTeam()"
	style=filled
	fillcolor=white
	tooltip="Team

&#10;  Displays information about the team.&#10;  This method should be implemented by subclasses.&#10; "
	fontcolor=darkgreen
];

Team2602621XXXremovePlayer1901885695[
	label="+ removePlayer()"
	style=filled
	fillcolor=white
	tooltip="Team

&#10;  Removes a player from the team.&#10; &#10;  @param player the player to remove&#10; "
	fontcolor=darkgreen
];
} 
} 

subgraph cluster_322653498 { 
   	label=SetCurrentTeamCmd
	labeljust=l
	fillcolor="#ececec"
	style=filled
   
   subgraph cluster_1937825378 { 
   	label=SetCurrentTeamCmd
	labeljust=l
	fillcolor=white
	style=filled
   
   SetCurrentTeamCmd322653498XXXexecute0[
	label="+ execute()"
	style=filled
	fillcolor=white
	tooltip="SetCurrentTeamCmd

null"
	fontcolor=darkgreen
];
} 
} 

subgraph cluster_349235996 { 
   	label=ExitCmd
	labeljust=l
	fillcolor="#ececec"
	style=filled
   
   subgraph cluster_226036298 { 
   	label=ExitCmd
	labeljust=l
	fillcolor=white
	style=filled
   
   ExitCmd349235996XXXexecute0[
	label="+ execute()"
	style=filled
	fillcolor=white
	tooltip="ExitCmd

null"
	fontcolor=darkgreen
];
} 
} 

subgraph cluster_791935839 { 
   	label=CommandFactory
	labeljust=l
	fillcolor="#ececec"
	style=filled
   
   subgraph cluster_850988494 { 
   	label=CommandFactory
	labeljust=l
	fillcolor=white
	style=filled
   
   CommandFactory791935839XXXcreateCommand1808118735[
	label="+ createCommand()"
	style=filled
	fillcolor=white
	tooltip="CommandFactory

null"
	fontcolor=darkgreen
];
} 
} 

subgraph cluster_956941363 { 
   	label=TeamFactory
	labeljust=l
	fillcolor="#ececec"
	style=filled
   
   subgraph cluster_1615061804 { 
   	label=TeamFactory
	labeljust=l
	fillcolor=white
	style=filled
   
   TeamFactory956941363XXXcreateTeam2013066710[
	label="+ createTeam()"
	style=filled
	fillcolor=white
	tooltip="TeamFactory

&#10;  Creates a new Team object based on the team ID and team type.&#10; &#10;  @param teamIdthe ID of the team&#10;  @param teamType the type of the team (\"v\" for VolleyballTeam, \"f\" for FootBallTeam)&#10;  @return a new Team object or null if the team type is invalid&#10; "
	fontcolor=darkgreen
];
} 
} 

subgraph cluster_970201712 { 
   	label=TeamManager
	labeljust=l
	fillcolor="#ececec"
	style=filled
   
   subgraph cluster_1603257330 { 
   	label=TeamManager
	labeljust=l
	fillcolor=white
	style=filled
   
   TeamManager970201712XXXaddTeam2602621[
	label="+ addTeam()"
	style=filled
	fillcolor=white
	tooltip="TeamManager

null"
	fontcolor=darkgreen
];

TeamManager970201712XXXchangeCurrentTeamName1808118735[
	label="+ changeCurrentTeamName()"
	style=filled
	fillcolor=white
	tooltip="TeamManager

null"
	fontcolor=darkgreen
];

TeamManager970201712XXXcheckTeamList0[
	label="+ checkTeamList()"
	style=filled
	fillcolor=white
	tooltip="TeamManager

null"
	fontcolor=darkgreen
];

TeamManager970201712XXXdeletePlayer1808118735[
	label="+ deletePlayer()"
	style=filled
	fillcolor=white
	tooltip="TeamManager

null"
	fontcolor=darkgreen
];

TeamManager970201712XXXdisplayAllTeams0[
	label="+ displayAllTeams()"
	style=filled
	fillcolor=white
	tooltip="TeamManager

null"
	fontcolor=darkgreen
];

TeamManager970201712XXXgetPlayer1808118735[
	label="+ getPlayer()"
	style=filled
	fillcolor=white
	tooltip="TeamManager

null"
	fontcolor=darkgreen
];

TeamManager970201712XXXpushCommand1681334247[
	label="+ pushCommand()"
	style=filled
	fillcolor=white
	tooltip="TeamManager

null"
	fontcolor=darkgreen
];

TeamManager970201712XXXredo0[
	label="+ redo()"
	style=filled
	fillcolor=white
	tooltip="TeamManager

null"
	fontcolor=darkgreen
];

TeamManager970201712XXXshowCurrentTeam0[
	label="+ showCurrentTeam()"
	style=filled
	fillcolor=white
	tooltip="TeamManager

null"
	fontcolor=darkgreen
];

TeamManager970201712XXXshowRedoList0[
	label="+ showRedoList()"
	style=filled
	fillcolor=white
	tooltip="TeamManager

null"
	fontcolor=darkgreen
];

TeamManager970201712XXXshowUndoList0[
	label="+ showUndoList()"
	style=filled
	fillcolor=white
	tooltip="TeamManager

null"
	fontcolor=darkgreen
];

TeamManager970201712XXXteamExists1808118735[
	label="+ teamExists()"
	style=filled
	fillcolor=white
	tooltip="TeamManager

null"
	fontcolor=darkgreen
];

TeamManager970201712XXXundo0[
	label="+ undo()"
	style=filled
	fillcolor=white
	tooltip="TeamManager

null"
	fontcolor=darkgreen
];

TeamManager970201712XXXupdatePlayerPosition107927658[
	label="+ updatePlayerPosition()"
	style=filled
	fillcolor=white
	tooltip="TeamManager

null"
	fontcolor=darkgreen
];
} 
} 

'edges    
AddPlayerCmd1845651688XXXexecute0 -> PlayerFactory1934913847XXXcreatePlayer1468174875;
AddPlayerCmd1845651688XXXexecute0 -> Team2602621XXXaddPlayer1901885695;
AddPlayerCmd1845651688XXXexecute0 -> TeamManager970201712XXXpushCommand1681334247;
CreateTeamCmd1606164705XXXexecute0 -> TeamFactory956941363XXXcreateTeam2013066710;
CreateTeamCmd1606164705XXXexecute0 -> TeamManager970201712XXXaddTeam2602621;
CreateTeamCmd1606164705XXXexecute0 -> TeamManager970201712XXXpushCommand1681334247;
DeletePlayerCmd2086864626XXXexecute0 -> TeamManager970201712XXXdeletePlayer1808118735;
DeletePlayerCmd2086864626XXXexecute0 -> TeamManager970201712XXXgetPlayer1808118735;
DeletePlayerCmd2086864626XXXexecute0 -> TeamManager970201712XXXpushCommand1681334247;
ListAllTeamCmd1106620442XXXexecute0 -> TeamManager970201712XXXdisplayAllTeams0;
ListCurrentTeamCmd1935209918XXXexecute0 -> Team2602621XXXdisplayTeam0;
ListUndoRedoCmd216072902XXXexecute0 -> TeamManager970201712XXXshowRedoList0;
ListUndoRedoCmd216072902XXXexecute0 -> TeamManager970201712XXXshowUndoList0;
Main2390489XXXmain1859653459 -> AddPlayerCmd1845651688XXXexecute0;
Main2390489XXXmain1859653459 -> CommandFactory791935839XXXcreateCommand1808118735;
Main2390489XXXmain1859653459 -> CreateTeamCmd1606164705XXXexecute0;
Main2390489XXXmain1859653459 -> DeletePlayerCmd2086864626XXXexecute0;
Main2390489XXXmain1859653459 -> ExitCmd349235996XXXexecute0;
Main2390489XXXmain1859653459 -> ListAllTeamCmd1106620442XXXexecute0;
Main2390489XXXmain1859653459 -> ListCurrentTeamCmd1935209918XXXexecute0;
Main2390489XXXmain1859653459 -> ListUndoRedoCmd216072902XXXexecute0;
Main2390489XXXmain1859653459 -> RedoCmd1546838468XXXexecute0;
Main2390489XXXmain1859653459 -> SetCurrentTeamCmd322653498XXXexecute0;
Main2390489XXXmain1859653459 -> SetPlayerPositionCmd1583833486XXXexecute0;
Main2390489XXXmain1859653459 -> SetTeamNameCmd1069967344XXXexecute0;
Main2390489XXXmain1859653459 -> TeamManager970201712XXXcheckTeamList0;
Main2390489XXXmain1859653459 -> TeamManager970201712XXXshowCurrentTeam0;
Main2390489XXXmain1859653459 -> UndoCmd1373334934XXXexecute0;
RedoCmd1546838468XXXexecute0 -> TeamManager970201712XXXredo0;
SetCurrentTeamCmd322653498XXXexecute0 -> TeamManager970201712XXXteamExists1808118735;
SetPlayerPositionCmd1583833486XXXexecute0 -> TeamManager970201712XXXgetPlayer1808118735;
SetPlayerPositionCmd1583833486XXXexecute0 -> TeamManager970201712XXXpushCommand1681334247;
SetPlayerPositionCmd1583833486XXXexecute0 -> TeamManager970201712XXXupdatePlayerPosition107927658;
SetTeamNameCmd1069967344XXXexecute0 -> TeamManager970201712XXXchangeCurrentTeamName1808118735;
SetTeamNameCmd1069967344XXXexecute0 -> TeamManager970201712XXXpushCommand1681334247;
Team2602621XXXdisplayTeam0 -> FootballTeam1382791050XXXdisplayTeam0;
Team2602621XXXdisplayTeam0 -> VolleyballTeam1575319689XXXdisplayTeam0;
TeamManager970201712XXXdeletePlayer1808118735 -> Team2602621XXXremovePlayer1901885695;
TeamManager970201712XXXpushCommand1681334247 -> Caretaker1806386234XXXpushCommand1681334247;
TeamManager970201712XXXredo0 -> Caretaker1806386234XXXredo0;
TeamManager970201712XXXshowRedoList0 -> Caretaker1806386234XXXshowRedoList0;
TeamManager970201712XXXshowUndoList0 -> Caretaker1806386234XXXshowUndoList0;
TeamManager970201712XXXundo0 -> Caretaker1806386234XXXundo0;
TeamManager970201712XXXupdatePlayerPosition107927658 -> TeamManager970201712XXXgetPlayer1808118735;
UndoCmd1373334934XXXexecute0 -> TeamManager970201712XXXundo0;
    
}
@enduml